%YAML 1.1
%TAG !u! tag:unity3d.com,2011:
--- !u!1 &4239950382535666048
GameObject:
  m_ObjectHideFlags: 0
  m_CorrespondingSourceObject: {fileID: 0}
  m_PrefabInstance: {fileID: 0}
  m_PrefabAsset: {fileID: 0}
  serializedVersion: 6
  m_Component:
  - component: {fileID: 4577797633134080632}
  - component: {fileID: 8133742915686114915}
  m_Layer: 0
  m_Name: Node
  m_TagString: Untagged
  m_Icon: {fileID: 2488908585195742037, guid: 0000000000000000d000000000000000, type: 0}
  m_NavMeshLayer: 0
  m_StaticEditorFlags: 0
  m_IsActive: 1
--- !u!4 &4577797633134080632
Transform:
  m_ObjectHideFlags: 0
  m_CorrespondingSourceObject: {fileID: 0}
  m_PrefabInstance: {fileID: 0}
  m_PrefabAsset: {fileID: 0}
  m_GameObject: {fileID: 4239950382535666048}
  m_LocalRotation: {x: 0, y: 0, z: 0, w: 1}
  m_LocalPosition: {x: 0, y: 0, z: 0}
  m_LocalScale: {x: 1, y: 1, z: 1}
  m_Children: []
  m_Father: {fileID: 0}
  m_RootOrder: 0
  m_LocalEulerAnglesHint: {x: 0, y: 0, z: 0}
--- !u!114 &8133742915686114915
MonoBehaviour:
  m_ObjectHideFlags: 0
  m_CorrespondingSourceObject: {fileID: 0}
  m_PrefabInstance: {fileID: 0}
  m_PrefabAsset: {fileID: 0}
  m_GameObject: {fileID: 4239950382535666048}
  m_Enabled: 1
  m_EditorHideFlags: 0
  m_Script: {fileID: 11500000, guid: bf7d2ca5f8c38424893207138855cb5b, type: 3}
  m_Name: 
  m_EditorClassIdentifier: 
  entrance: {fileID: 3937636985179495679, guid: 13415e673945569468d9fc7d1b35f483,
    type: 3}
  exit: {fileID: 3937636985179495679, guid: 0f83f902425947845bb0bd61ebf3ed75, type: 3}
  lConnect: {fileID: 2128735488754389369, guid: f1fcf8a8d60af4b4cae07e490cab17bc,
    type: 3}
  tConnect: {fileID: 8626635509490383058, guid: 7e6a061cf9b03ee4297832ee7edb6e69,
    type: 3}
  xConnect: {fileID: 1185362582847120242, guid: 926e08d26afd6cb40a75e43cfd3b2ffd,
    type: 3}
  sConnect: {fileID: 2803025957840912040, guid: 2fea00ea0cf00cd41905a22184a7a968,
    type: 3}
  room: {fileID: 3937636985179495679, guid: 7fa01c4e018a0734f8646df3c2189025, type: 3}
  deadEnd: {fileID: 3937636985179495679, guid: 26fcaa50c2a9bf54a988108af0694202, type: 3}
  connectionPoints: 
  type: 0
  isAssigned: 0
  iD: 0
  arrayPosX: 0
  arrayPosY: 0
  unchangable: 0
  parent: {fileID: 0}
